{
    "KPackageStructure": "KWin/Effect",
    "KPlugin": {
        "Authors": [
            {
                "Email": "mgraesslin@kde.org",
                "Name": "Martin Gräßlin",
                "Name[ar]": "مارتن جراجلين",
                "Name[be]": "Martin Gräßlin",
                "Name[bg]": "Martin Gräßlin",
                "Name[ca@valencia]": "Martin Gräßlin",
                "Name[ca]": "Martin Gräßlin",
                "Name[es]": "Martin Gräßlin",
                "Name[et]": "Martin Gräßlin",
                "Name[eu]": "Martin Gräßlin",
                "Name[fr]": "Martin Gräßlin",
                "Name[it]": "Martin Gräßlin",
                "Name[ka]": "მარტინ გრესსლინი",
                "Name[nl]": "Martin Gräßlin",
                "Name[pl]": "Martin Gräßlin",
                "Name[pt]": "Martin Gräßlin",
                "Name[sl]": "Martin Gräßlin",
                "Name[ta]": "மார்ட்டின் கிராஸ்லின்",
                "Name[tr]": "Martin Gräßlin",
                "Name[uk]": "Martin Gräßlin",
                "Name[vi]": "Martin Gräßlin",
                "Name[x-test]": "xxMartin Gräßlinxx"
            }
        ],
        "Category": "Appearance",
        "Description": "Animation for a window going to and leaving full screen mode",
        "Description[ar]": "الرسوم المتحركة لنافذة تنتقل إلى وضع ملء الشاشة أوتغادرها",
        "Description[be]": "Анімацыя пераходу ў поўнаэкранны рэжым і выхаду з яго",
        "Description[bg]": "Анимация за прозорец при влизане и излизане от режим на цял екран",
        "Description[ca@valencia]": "Animació per a una finestra que entra o abandona el mode de pantalla completa",
        "Description[ca]": "Animació per a una finestra que entra o abandona el mode de pantalla completa",
        "Description[es]": "Animación para la ventana que entra o sale del modo de pantalla completa",
        "Description[et]": "Täisekraanirežiimi mineva või sealt väljuva akna animatsioon",
        "Description[eu]": "Pantaila-osoko modutik/modura aldatzen den leiho baten animazioa",
        "Description[fr]": "Animation pour une fenêtre passant ou sortant du mode plein écran",
        "Description[ia]": "Animation per un fenestra va a e abandona modo de schermo plen",
        "Description[it]": "Animazione per una finestra che entra e esce dalla modalità a schermo intero",
        "Description[nl]": "Animatie voor een venster dat gaat naar volledig scherm en deze verlaat",
        "Description[pl]": "Animacja dla okna wchodzącego i wychodzącego z trybu pełnego ekranu",
        "Description[pt]": "Animação numa janela ao entrar ou sair do modo de ecrã completo",
        "Description[sl]": "Animacija za okno, ki vstopa v ali izstopa iz celozaslonskega načina",
        "Description[ta]": "சாளரம் முழுத்திரை முறையில் நுழைவதற்கும் அம்முறையிலிருந்து வெளியேறுவதற்குமான அசைவூட்டம்",
        "Description[tr]": "Tam ekran kipine giren ve çıkan pencere için canlandırma",
        "Description[uk]": "Анімація для вікон під час входу до повноекранного режиму і виходу з нього",
        "Description[vi]": "Hiệu ứng động cho một cửa sổ đang đi vào và rời khỏi chế độ toàn màn hình",
        "Description[x-test]": "xxAnimation for a window going to and leaving full screen modexx",
        "EnabledByDefault": true,
        "Icon": "preferences-system-windows-effect-fullscreen",
        "Id": "kwin4_effect_fullscreen",
        "License": "GPL",
        "Name": "Full Screen",
        "Name[ar]": "ملء الشاشة",
        "Name[be]": "На ўвесь экран",
        "Name[bg]": "Цял екран",
        "Name[ca@valencia]": "Pantalla completa",
        "Name[ca]": "Pantalla completa",
        "Name[es]": "Pantalla completa",
        "Name[et]": "Täisekraan",
        "Name[eu]": "Pantaila-betea",
        "Name[fr]": "Plein écran",
        "Name[ia]": "Schermo plen",
        "Name[it]": "Schermo intero",
        "Name[ka]": "სრულეკრანიანი რეჟიმი",
        "Name[nl]": "Volledig scherm",
        "Name[pl]": "Pełny ekran",
        "Name[pt]": "Ecrã Completo",
        "Name[sl]": "Celozaslonski način",
        "Name[ta]": "முழுத்திரை",
        "Name[tr]": "Tam Ekran",
        "Name[uk]": "Повноекранний режим",
        "Name[vi]": "Toàn màn hình",
        "Name[x-test]": "xxFull Screenxx",
        "Version": "1",
        "Website": ""
    },
    "X-KDE-Ordering": "60",
    "X-KDE-ParentApp": "",
    "X-Plasma-API": "javascript",
    "X-Plasma-MainScript": "code/fullscreen.js"
}
